info face="Arial" size=16 bold=0 italic=0 charset="" unicode=0 stretchH=100 smooth=1 aa=1 padding=0,0,0,0 spacing=0,0
common lineHeight=19 base=15 scaleW=128 scaleH=128 pages=1 packed=0
page id=0 file="default.png"
chars count=95
char id=32   x=0     y=0     width=0     height=0     xoffset=0     yoffset=15    xadvance=4     page=0  chnl=0 
char id=64   x=0     y=0     width=16     height=16     xoffset=1     yoffset=3    xadvance=16     page=0  chnl=0 
char id=124   x=16     y=0     width=2     height=16     xoffset=1     yoffset=3    xadvance=3     page=0  chnl=0 
char id=125   x=18     y=0     width=6     height=16     xoffset=0     yoffset=3    xadvance=5     page=0  chnl=0 
char id=123   x=24     y=0     width=6     height=16     xoffset=0     yoffset=3    xadvance=5     page=0  chnl=0 
char id=93   x=30     y=0     width=4     height=16     xoffset=0     yoffset=3    xadvance=4     page=0  chnl=0 
char id=91   x=34     y=0     width=4     height=16     xoffset=1     yoffset=3    xadvance=4     page=0  chnl=0 
char id=41   x=38     y=0     width=4     height=16     xoffset=1     yoffset=3    xadvance=5     page=0  chnl=0 
char id=40   x=42     y=0     width=4     height=16     xoffset=1     yoffset=3    xadvance=5     page=0  chnl=0 
char id=106   x=46     y=0     width=4     height=16     xoffset=-1     yoffset=3    xadvance=3     page=0  chnl=0 
char id=36   x=50     y=0     width=8     height=15     xoffset=1     yoffset=2    xadvance=9     page=0  chnl=0 
char id=81   x=58     y=0     width=11     height=14     xoffset=1     yoffset=3    xadvance=12     page=0  chnl=0 
char id=38   x=69     y=0     width=11     height=13     xoffset=1     yoffset=3    xadvance=11     page=0  chnl=0 
char id=35   x=80     y=0     width=10     height=13     xoffset=0     yoffset=3    xadvance=9     page=0  chnl=0 
char id=37   x=90     y=0     width=13     height=13     xoffset=1     yoffset=3    xadvance=14     page=0  chnl=0 
char id=92   x=103     y=0     width=5     height=13     xoffset=0     yoffset=3    xadvance=4     page=0  chnl=0 
char id=47   x=108     y=0     width=5     height=13     xoffset=0     yoffset=3    xadvance=4     page=0  chnl=0 
char id=59   x=113     y=0     width=2     height=13     xoffset=1     yoffset=6    xadvance=4     page=0  chnl=0 
char id=63   x=115     y=0     width=8     height=13     xoffset=1     yoffset=3    xadvance=9     page=0  chnl=0 
char id=33   x=123     y=0     width=2     height=13     xoffset=2     yoffset=3    xadvance=5     page=0  chnl=0 
char id=48   x=0     y=16     width=8     height=13     xoffset=1     yoffset=3    xadvance=9     page=0  chnl=0 
char id=57   x=8     y=16     width=8     height=13     xoffset=1     yoffset=3    xadvance=9     page=0  chnl=0 
char id=56   x=16     y=16     width=8     height=13     xoffset=1     yoffset=3    xadvance=9     page=0  chnl=0 
char id=55   x=24     y=16     width=7     height=13     xoffset=2     yoffset=3    xadvance=9     page=0  chnl=0 
char id=54   x=31     y=16     width=8     height=13     xoffset=1     yoffset=3    xadvance=9     page=0  chnl=0 
char id=53   x=39     y=16     width=8     height=13     xoffset=1     yoffset=3    xadvance=9     page=0  chnl=0 
char id=52   x=47     y=16     width=9     height=13     xoffset=0     yoffset=3    xadvance=9     page=0  chnl=0 
char id=51   x=56     y=16     width=8     height=13     xoffset=1     yoffset=3    xadvance=9     page=0  chnl=0 
char id=50   x=64     y=16     width=9     height=13     xoffset=0     yoffset=3    xadvance=9     page=0  chnl=0 
char id=49   x=73     y=16     width=5     height=13     xoffset=2     yoffset=3    xadvance=9     page=0  chnl=0 
char id=121   x=78     y=16     width=9     height=13     xoffset=-1     yoffset=6    xadvance=7     page=0  chnl=0 
char id=116   x=87     y=16     width=5     height=13     xoffset=0     yoffset=3    xadvance=4     page=0  chnl=0 
char id=113   x=92     y=16     width=8     height=13     xoffset=1     yoffset=6    xadvance=9     page=0  chnl=0 
char id=112   x=100     y=16     width=8     height=13     xoffset=1     yoffset=6    xadvance=9     page=0  chnl=0 
char id=108   x=108     y=16     width=2     height=13     xoffset=1     yoffset=3    xadvance=3     page=0  chnl=0 
char id=107   x=110     y=16     width=9     height=13     xoffset=1     yoffset=3    xadvance=8     page=0  chnl=0 
char id=105   x=119     y=16     width=2     height=13     xoffset=1     yoffset=3    xadvance=4     page=0  chnl=0 
char id=104   x=0     y=29     width=7     height=13     xoffset=1     yoffset=3    xadvance=8     page=0  chnl=0 
char id=103   x=7     y=29     width=9     height=13     xoffset=0     yoffset=6    xadvance=9     page=0  chnl=0 
char id=102   x=16     y=29     width=7     height=13     xoffset=0     yoffset=3    xadvance=4     page=0  chnl=0 
char id=100   x=23     y=29     width=8     height=13     xoffset=1     yoffset=3    xadvance=9     page=0  chnl=0 
char id=98   x=31     y=29     width=8     height=13     xoffset=1     yoffset=3    xadvance=9     page=0  chnl=0 
char id=90   x=39     y=29     width=10     height=13     xoffset=0     yoffset=3    xadvance=9     page=0  chnl=0 
char id=89   x=49     y=29     width=11     height=13     xoffset=0     yoffset=3    xadvance=9     page=0  chnl=0 
char id=88   x=60     y=29     width=12     height=13     xoffset=0     yoffset=3    xadvance=11     page=0  chnl=0 
char id=87   x=72     y=29     width=16     height=13     xoffset=0     yoffset=3    xadvance=15     page=0  chnl=0 
char id=86   x=88     y=29     width=12     height=13     xoffset=0     yoffset=3    xadvance=11     page=0  chnl=0 
char id=85   x=100     y=29     width=10     height=13     xoffset=1     yoffset=3    xadvance=11     page=0  chnl=0 
char id=84   x=110     y=29     width=10     height=13     xoffset=0     yoffset=3    xadvance=9     page=0  chnl=0 
char id=83   x=0     y=42     width=10     height=13     xoffset=1     yoffset=3    xadvance=11     page=0  chnl=0 
char id=82   x=10     y=42     width=11     height=13     xoffset=1     yoffset=3    xadvance=11     page=0  chnl=0 
char id=80   x=21     y=42     width=10     height=13     xoffset=1     yoffset=3    xadvance=11     page=0  chnl=0 
char id=79   x=31     y=42     width=11     height=13     xoffset=1     yoffset=3    xadvance=12     page=0  chnl=0 
char id=78   x=42     y=42     width=10     height=13     xoffset=1     yoffset=3    xadvance=11     page=0  chnl=0 
char id=77   x=52     y=42     width=12     height=13     xoffset=1     yoffset=3    xadvance=13     page=0  chnl=0 
char id=76   x=64     y=42     width=8     height=13     xoffset=1     yoffset=3    xadvance=9     page=0  chnl=0 
char id=75   x=72     y=42     width=10     height=13     xoffset=1     yoffset=3    xadvance=11     page=0  chnl=0 
char id=74   x=82     y=42     width=8     height=13     xoffset=0     yoffset=3    xadvance=8     page=0  chnl=0 
char id=73   x=90     y=42     width=2     height=13     xoffset=1     yoffset=3    xadvance=3     page=0  chnl=0 
char id=72   x=92     y=42     width=10     height=13     xoffset=1     yoffset=3    xadvance=11     page=0  chnl=0 
char id=71   x=102     y=42     width=11     height=13     xoffset=1     yoffset=3    xadvance=12     page=0  chnl=0 
char id=70   x=113     y=42     width=9     height=13     xoffset=1     yoffset=3    xadvance=10     page=0  chnl=0 
char id=69   x=0     y=55     width=10     height=13     xoffset=1     yoffset=3    xadvance=11     page=0  chnl=0 
char id=68   x=10     y=55     width=11     height=13     xoffset=1     yoffset=3    xadvance=12     page=0  chnl=0 
char id=67   x=21     y=55     width=11     height=13     xoffset=1     yoffset=3    xadvance=12     page=0  chnl=0 
char id=66   x=32     y=55     width=10     height=13     xoffset=1     yoffset=3    xadvance=11     page=0  chnl=0 
char id=65   x=42     y=55     width=12     height=13     xoffset=0     yoffset=3    xadvance=11     page=0  chnl=0 
char id=127   x=54     y=55     width=9     height=12     xoffset=2     yoffset=4    xadvance=12     page=0  chnl=0 
char id=58   x=63     y=55     width=2     height=10     xoffset=1     yoffset=6    xadvance=4     page=0  chnl=0 
char id=122   x=65     y=55     width=8     height=10     xoffset=0     yoffset=6    xadvance=7     page=0  chnl=0 
char id=120   x=73     y=55     width=8     height=10     xoffset=0     yoffset=6    xadvance=7     page=0  chnl=0 
char id=119   x=81     y=55     width=12     height=10     xoffset=0     yoffset=6    xadvance=11     page=0  chnl=0 
char id=118   x=93     y=55     width=10     height=10     xoffset=-1     yoffset=6    xadvance=7     page=0  chnl=0 
char id=117   x=103     y=55     width=7     height=10     xoffset=1     yoffset=6    xadvance=8     page=0  chnl=0 
char id=115   x=110     y=55     width=7     height=10     xoffset=1     yoffset=6    xadvance=8     page=0  chnl=0 
char id=114   x=117     y=55     width=5     height=10     xoffset=1     yoffset=6    xadvance=5     page=0  chnl=0 
char id=111   x=0     y=68     width=9     height=10     xoffset=0     yoffset=6    xadvance=9     page=0  chnl=0 
char id=110   x=9     y=68     width=7     height=10     xoffset=1     yoffset=6    xadvance=8     page=0  chnl=0 
char id=109   x=16     y=68     width=12     height=10     xoffset=1     yoffset=6    xadvance=13     page=0  chnl=0 
char id=101   x=28     y=68     width=8     height=10     xoffset=1     yoffset=6    xadvance=9     page=0  chnl=0 
char id=99   x=36     y=68     width=7     height=10     xoffset=1     yoffset=6    xadvance=8     page=0  chnl=0 
char id=97   x=43     y=68     width=8     height=10     xoffset=1     yoffset=6    xadvance=9     page=0  chnl=0 
char id=43   x=51     y=68     width=8     height=8     xoffset=1     yoffset=6    xadvance=9     page=0  chnl=0 
char id=62   x=59     y=68     width=8     height=8     xoffset=1     yoffset=6    xadvance=9     page=0  chnl=0 
char id=60   x=67     y=68     width=8     height=8     xoffset=1     yoffset=6    xadvance=9     page=0  chnl=0 
char id=94   x=75     y=68     width=8     height=7     xoffset=0     yoffset=3    xadvance=7     page=0  chnl=0 
char id=42   x=83     y=68     width=6     height=6     xoffset=0     yoffset=3    xadvance=6     page=0  chnl=0 
char id=61   x=89     y=68     width=8     height=6     xoffset=1     yoffset=7    xadvance=9     page=0  chnl=0 
char id=44   x=97     y=68     width=2     height=5     xoffset=2     yoffset=14    xadvance=4     page=0  chnl=0 
char id=39   x=99     y=68     width=2     height=5     xoffset=1     yoffset=3    xadvance=3     page=0  chnl=0 
char id=34   x=101     y=68     width=5     height=5     xoffset=1     yoffset=3    xadvance=6     page=0  chnl=0 
char id=126   x=106     y=68     width=9     height=3     xoffset=0     yoffset=8    xadvance=9     page=0  chnl=0 
char id=96   x=115     y=68     width=3     height=3     xoffset=1     yoffset=3    xadvance=5     page=0  chnl=0 
char id=95   x=0     y=78     width=10     height=2     xoffset=0     yoffset=17    xadvance=9     page=0  chnl=0 
char id=45   x=10     y=78     width=5     height=2     xoffset=0     yoffset=11    xadvance=5     page=0  chnl=0 
char id=46   x=15     y=78     width=2     height=2     xoffset=2     yoffset=14    xadvance=4     page=0  chnl=0 
